Conteo rapido muestra estratificada proporcional
…
Simulacin

df.distritos <- gobernador2015 %>%
  group_by(distrito_local) %>%
  summarise(LN = sum(lista_nominal),
            N.dist = n(),           # Casillas por distrito
            p = LN/sum(gobernador2015$lista_nominal)) %>%   # Proporcin
  mutate(n.dist = round(num.casillas = n * p)) %>%
  arrange(distrito_local)
df.distritos

## # A tibble: 21 x 5
##    distrito_local               LN N.dist      p n.dist
##    <chr>                     <dbl>  <int>  <dbl>  <dbl>
##  1 AGUA PRIETA VII           90616    159 0.0461     16
##  2 CABORCA III               91149    167 0.0464     16
##  3 CANANEA VI                88954    165 0.0453     16
##  4 EMPALME XIV               81071    145 0.0413     14
##  5 ETCHOJOA XX               94409    166 0.0481     17
##  6 GUAYMAS XIII              93901    168 0.0478     17
##  7 HERMOSILLO CENTRO IX     102651    176 0.0522     18
##  8 HERMOSILLO COSTA XI      121788    234 0.0620     21
##  9 HERMOSILLO NORESTE X     101542    157 0.0517     18
## 10 HERMOSILLO NOROESTE VIII 122540    200 0.0624     22
## #  with 11 more rows
…
