Conteo rapido muestra estratificada proporcional
…
df.distritos <- gobernador2015 %>%
  group_by(distrito_local) %>%
  summarise(LN = sum(lista_nominal),
            Nh = n(),           # Casillas por distrito
            p = LN/sum(gobernador2015$lista_nominal)) %>%   # Proporcin
  mutate(nh = round(n * p),
         nh12 = round(N * 0.12 * p),
         nh15 = round(N * 0.15 * p),
         nh25 = round(N * 0.25 * p)) %>%
  arrange(distrito_local) %>%
  rename(estrato = distrito_local)
df.distritos

## # A tibble: 21 x 8
##    estrato                      LN    Nh      p    nh  nh12  nh15  nh25
##    <chr>                     <dbl> <int>  <dbl> <dbl> <dbl> <dbl> <dbl>
##  1 AGUA PRIETA VII           90616   159 0.0461    16    19    24    40
##  2 CABORCA III               91149   167 0.0464    16    19    24    40
##  3 CANANEA VI                88954   165 0.0453    16    19    23    39
##  4 EMPALME XIV               81071   145 0.0413    14    17    21    35
##  5 ETCHOJOA XX               94409   166 0.0481    17    20    25    41
##  6 GUAYMAS XIII              93901   168 0.0478    17    20    25    41
##  7 HERMOSILLO CENTRO IX     102651   176 0.0522    18    22    27    45
##  8 HERMOSILLO COSTA XI      121788   234 0.0620    21    26    32    53
##  9 HERMOSILLO NORESTE X     101542   157 0.0517    18    21    27    44
## 10 HERMOSILLO NOROESTE VIII 122540   200 0.0624    22    26    32    54
## #  with 11 more rows
…
            Nh = n(),           # Casillas por distrito
            p = LN/sum(gobernador2015$lista_nominal)) %>%   # Proporcin
  mutate(nh = round(n * p),
         nh12 = round(N * 0.12 * p),
         nh15 = round(N * 0.15 * p),
         nh25 = round(N * 0.25 * p)) %>%
  mutate(nh = if_else(nh == 1, 2, nh),
         nh12 = if_else(nh12 == 1, 2, nh12),
         nh15 = if_else(nh15 == 1, 2, nh15),
         nh25 = if_else(nh25 == 1, 2, nh25)) %>%
  arrange(distrito_tipo) %>%
  rename(estrato = distrito_tipo)
df.distritosTipo

## # A tibble: 39 x 8
##    estrato                   LN    Nh      p    nh  nh12  nh15  nh25
##    <chr>                  <dbl> <int>  <dbl> <dbl> <dbl> <dbl> <dbl>
##  1 AGUA PRIETA VII RURAL  19708    42 0.0100     3     4     5     9
##  2 AGUA PRIETA VII URBANA 70908   117 0.0361    12    15    19    31
##  3 CABORCA III RURAL      31527    68 0.0160     6     7     8    14
##  4 CABORCA III URBANA     59622    99 0.0303    10    13    16    26
##  5 CANANEA VI RURAL       36727    78 0.0187     6     8    10    16
##  6 CANANEA VI URBANA      52227    87 0.0266     9    11    14    23
##  7 EMPALME XIV RURAL      33309    61 0.0170     6     7     9    15
##  8 EMPALME XIV URBANA     47762    84 0.0243     8    10    13    21
##  9 ETCHOJOA XX RURAL      44179    83 0.0225     8     9    12    19
## 10 ETCHOJOA XX URBANA     50230    83 0.0256     9    11    13    22
## #  with 29 more rows
…
