Conteo Rápido
…
Estratificado

Resumen de resultados por distrito

df.distritos <- gobernador2015 %>%
  group_by(distrito_local) %>%
  summarise(LN = sum(lista_nominal),
            N.dist = n(),           # Casillas por distrito
            p = LN/sum(gobernador2015$lista_nominal)) %>%   # Proporción
  mutate(n.dist = round(num.casillas = n * p)) %>%
  arrange(distrito_local)

df.distritos

## # A tibble: 21 x 5
##    distrito_local               LN N.dist      p n.dist
##    <chr>                     <dbl>  <int>  <dbl>  <dbl>
##  1 AGUA PRIETA VII           90616    159 0.0461     16
##  2 CABORCA III               91149    167 0.0464     16
##  3 CANANEA VI                88954    165 0.0453     16
##  4 EMPALME XIV               81071    145 0.0413     14
##  5 ETCHOJOA XX               94409    166 0.0481     17
##  6 GUAYMAS XIII              93901    168 0.0478     17
##  7 HERMOSILLO CENTRO IX     102651    176 0.0522     18
##  8 HERMOSILLO COSTA XI      121788    234 0.0620     21
##  9 HERMOSILLO NORESTE X     101542    157 0.0517     18
## 10 HERMOSILLO NOROESTE VIII 122540    200 0.0624     22
## # … with 11 more rows
…
Tabla por distrito y casilla

rm(df.distritos)
df.distritos<- gobernador2015 %>%
  group_by(distrito_tipo) %>%
  summarise(LN = sum(lista_nominal),
            N.dist = n(),     # Casillas por distrito
            p = LN/sum(gobernador2015$lista_nominal)) %>%   # Proporción
  mutate(n.dist = round(num.casillas = n * p)) %>%
  arrange(distrito_tipo)

df.distritos

## # A tibble: 39 x 5
##    distrito_tipo             LN N.dist      p n.dist
##    <chr>                  <dbl>  <int>  <dbl>  <dbl>
##  1 AGUA PRIETA VII RURAL  19708     42 0.0100      3
##  2 AGUA PRIETA VII URBANA 70908    117 0.0361     12
##  3 CABORCA III RURAL      31527     68 0.0160      6
##  4 CABORCA III URBANA     59622     99 0.0303     10
##  5 CANANEA VI RURAL       36727     78 0.0187      6
##  6 CANANEA VI URBANA      52227     87 0.0266      9
##  7 EMPALME XIV RURAL      33309     61 0.0170      6
##  8 EMPALME XIV URBANA     47762     84 0.0243      8
##  9 ETCHOJOA XX RURAL      44179     83 0.0225      8
## 10 ETCHOJOA XX URBANA     50230     83 0.0256      9
## # … with 29 more rows
…
